Mechanistic modelling in odin2 (annual SIRV) • vpdsus
…
out_panel <- odin2_simulate(
  mdl_bal,
  times = times,
  pars = list(rho = 1),
  initial = list(S = 0),
  inputs = inputs
)

out_panel
#> # A tibble: 24 × 2
#>     time        S
#>    <int>    <dbl>
#>  1  2000       0 
#>  2  2001  625376.
#>  3  2002 1282773.
#>  4  2003 1934508.
#>  5  2004 2503640.
#>  6  2005 3050861.
#>  7  2006 3575681.
#>  8  2007 4085585.
#>  9  2008 4545858.
#> 10  2009 5006207.
#> # ℹ 14 more rows
…
cmp <- dplyr::left_join(
  dplyr::mutate(out_panel, year = time),
  dplyr::select(sus_d, year, susceptible_n),
  by = "year"
)

cmp
#> # A tibble: 24 × 4
#>     time        S  year susceptible_n
#>    <int>    <dbl> <int>         <dbl>
#>  1  2000       0   2000            0 
#>  2  2001  625376.  2001       750135.
#>  3  2002 1282773.  2002      1375511.
#>  4  2003 1934508.  2003      2032908.
#>  5  2004 2503640.  2004      2684643.
#>  6  2005 3050861.  2005      3253776.
#>  7  2006 3575681.  2006      3800997.
#>  8  2007 4085585.  2007      4325817.
#>  9  2008 4545858.  2008      4835720.
#> 10  2009 5006207.  2009      5295993.
#> # ℹ 14 more rows
…
rho_hat
#> [1] 1

out_cal <- odin2_simulate(
  mdl_bal,
  times = times,
  pars = list(rho = rho_hat),
  initial = list(S = 0),
  inputs = inputs
)

out_cal
#> # A tibble: 24 × 2
#>     time        S
#>    <int>    <dbl>
#>  1  2000       0 
#>  2  2001  625376.
#>  3  2002 1282773.
#>  4  2003 1934508.
#>  5  2004 2503640.
#>  6  2005 3050861.
#>  7  2006 3575681.
#>  8  2007 4085585.
#>  9  2008 4545858.
#> 10  2009 5006207.
#> # ℹ 14 more rows
…
