Outbreak modelling • vpdsus
…
dplyr::select(lag_metrics, lag_years, accuracy, brier, log_loss, auc, n_test)
#> # A tibble: 2 × 6
#>   lag_years accuracy  brier log_loss   auc n_test
#>       <dbl>    <dbl>  <dbl>    <dbl> <dbl>  <int>
#> 1         1    0.897 0.0958    0.406 0.724   1414
#> 2         2    0.891 0.0989    0.397 0.744   1229

C) Rolling-origin evaluation (recommended default for research
claims)

ev_roll <- evaluate_models_rolling_origin(mod_pc, min_train_years = 1)
#> Warning: glm.fit: algorithm did not converge
ev_roll
#> # A tibble: 23 × 9
#>    train_end n_train n_test prevalence accuracy  brier log_loss   auc split_type
#>        <dbl>   <int>  <int>      <dbl>    <dbl>  <dbl>    <dbl> <dbl> <chr>     
#>  1      2000     173   4116     0.100     0.783 0.134     0.410 0.746 rolling_o…
#>  2      2001     347   3942     0.0926    0.847 0.108     0.352 0.741 rolling_o…
#>  3      2002     526   3763     0.0856    0.900 0.0816    0.294 0.713 rolling_o…
#>  4      2003     713   3576     0.0822    0.917 0.0793    0.397 0.639 rolling_o…
#>  5      2004     892   3397     0.0810    0.919 0.0789    0.453 0.616 rolling_o…
#>  6      2005    1072   3217     0.0814    0.919 0.0798    0.498 0.609 rolling_o…
#>  7      2006    1255   3034     0.0834    0.917 0.0820    0.531 0.614 rolling_o…
#>  8      2007    1435   2854     0.0855    0.915 0.0840    0.535 0.623 rolling_o…
#>  9      2008    1620   2669     0.0873    0.913 0.0855    0.510 0.636 rolling_o…
#> 10      2009    1807   2482     0.0870    0.913 0.0842    0.445 0.648 rolling_o…
#> # ℹ 13 more rows
…
