Susceptibility estimates and WHO-style ranking plots • vpdsus
…
Simple side-by-side ranking comparison:

dplyr::left_join(
  dplyr::mutate(
    dplyr::select(rank_A, iso3, risk_A = risk_category, susc_A = susceptible_prop),
    year_end = attr(rank_A, "year_end")
  ),
  dplyr::mutate(
    dplyr::select(rank_B, iso3, risk_B = risk_category, susc_B = susceptible_prop),
    year_end = attr(rank_B, "year_end")
  ),
  by = c("iso3", "year_end")
)
#> # A tibble: 272 × 6
#>    iso3  risk_A susc_A year_end risk_B susc_B
#>    <chr> <fct>   <dbl>    <dbl> <fct>   <dbl>
#>  1 IND   low      0.11     2020 low    0.0892
#>  2 NGA   high     0.4      2020 high   0.536 
#>  3 ETH   high     0.43     2020 high   0.509 
#>  4 IDN   medium   0.24     2020 medium 0.136 
#>  5 COD   high     0.38     2020 high   0.472 
#>  6 PAK   medium   0.17     2020 medium 0.238 
#>  7 BRA   low      0.21     2020 low    0.109 
#>  8 AFG   high     0.43     2020 high   0.463 
#>  9 PHL   medium   0.21     2020 medium 0.175 
#> 10 YEM   high     0.47     2020 high   0.549 
#> # ℹ 262 more rows
…
